<?xml version="1.0" encoding="utf-8"?>
<!-- Generator: Adobe Illustrator 19.2.1, SVG Export Plug-In . SVG Version: 6.00 Build 0)  -->
<svg version="1.1" id="phone" xmlns="http://www.w3.org/2000/svg" xmlns:xlink="http://www.w3.org/1999/xlink" x="0px"
	 y="0px" viewBox="0 0 32 43" style="enable-background:new 0 0 32 43;" xml:space="preserve">
<style>
	@media all and (max-width: 640px){
		#aia-phone-phone{ fill: #3b3c3c; }
	}
</style>
<defs>
	<path id="phone" d="M15.9,15.7c-0.1,0.2-0.1,0.4,0.1,0.6c3.5,2.8,3.5,7.6,0,10.4c-0.2,0.2-0.3,0.4-0.1,0.6
		c0.1,0.2,0.5,0.2,0.7,0c3.9-3.1,3.9-8.5,0-11.5c-0.1-0.1-0.3-0.2-0.4-0.2C16.1,15.6,16,15.6,15.9,15.7 M19.6,12.3
		c-0.2,0.3-0.1,0.7,0.2,1c3.1,2.4,4.4,5.9,4.1,9.2c-0.3,2.6-1.6,5.2-4.1,7.1c-0.3,0.3-0.5,0.7-0.2,1c0.2,0.3,0.8,0.3,1.1-0.1
		c3.1-2.5,4.7-6,4.6-9.4c-0.1-3.2-1.6-6.5-4.6-8.8c-0.2-0.2-0.4-0.2-0.7-0.2C19.9,12.2,19.7,12.2,19.6,12.3 M24.2,8.9
		c-0.3,0.4-0.2,1,0.3,1.3c2.3,1.8,3.9,4.1,4.8,6.5c2,5.5,0.5,11.9-4.8,16c-0.5,0.4-0.6,1-0.3,1.3c0.3,0.4,1,0.4,1.6-0.1
		c6.2-4.9,7.8-12.6,4.8-19c-1-2.2-2.6-4.3-4.8-6c-0.3-0.2-0.6-0.3-0.9-0.3C24.5,8.7,24.3,8.8,24.2,8.9 M7.8,1.9
		c-8.4,9.2-10,21.7-4.8,32.2c1.2,2.5,2.8,4.8,4.8,6.9c1.5,1.6,4.1,2.3,5.5,1.7c0.1,0,0.2-0.1,0.3-0.2c0.1,0,0.2,0,0.3-0.1l2.8-1.5
		c1.1-0.6,0.9-2.7-0.5-4.7l-2.6-3.9c-0.5-0.8-1.1-1.4-1.8-1.9c-1-0.7-2-1.1-2.6-0.7l-1.3,0.7c-2.2-5.9-2.2-12.2,0-18.1l1.3,0.7
		c1.1,0.6,3.1-0.6,4.4-2.6l2.6-3.8C17.8,4.7,18,2.6,17,2l-2.8-1.5c-0.2-0.1-0.4-0.1-0.6-0.1c-0.1-0.1-0.2-0.1-0.3-0.2
		C12.9,0.1,12.5,0,12.1,0C10.7,0,8.9,0.7,7.8,1.9"/>
</defs>
<use xlink:href="#phone"  style="overflow:visible;"/>
<clipPath id="SVGID_2_">
	<use xlink:href="#phone"  style="overflow:visible;"/>
</clipPath>
</svg>
