<?xml version="1.0" encoding="utf-8"?>
<!-- Generator: Adobe Illustrator 19.2.1, SVG Export Plug-In . SVG Version: 6.00 Build 0)  -->
<svg version="1.1" id="Layer_1" xmlns="http://www.w3.org/2000/svg" xmlns:xlink="http://www.w3.org/1999/xlink" x="0px" y="0px"
	 viewBox="0 0 21 21" style="enable-background:new 0 0 21 21;" xml:space="preserve">
	 <title>Pinterest</title>
<style type="text/css">
	.st0{fill:#FFFFFF;}
</style>
<g>
	<path class="st0" d="M10.5,0C4.7,0,0,4.7,0,10.5c0,4.3,2.6,8,6.3,9.6c-0.1-0.8-0.1-2,0.1-3.1c0.2-0.8,1.4-5.6,1.4-5.6
		s-0.3-0.7-0.3-1.6c0-1.5,0.9-2.7,2-2.7c1,0,1.4,0.7,1.4,1.5c0,0.9-0.6,2.3-0.9,3.6c-0.3,1.1,0.6,2,1.7,2c2,0,3.4-2.5,3.4-5.5
		c0-2.2-1.6-3.9-4.4-3.9c-3.2,0-5.2,2.3-5.2,4.9c0,0.9,0.3,1.5,0.7,2c0.2,0.2,0.2,0.3,0.2,0.6c-0.1,0.2-0.2,0.6-0.2,0.8
		c-0.1,0.3-0.3,0.4-0.5,0.3C4,12.9,3.4,11.3,3.4,9.5c0-2.9,2.5-6.4,7.6-6.4c4,0,6.7,2.8,6.7,5.9c0,4-2.3,7-5.7,7
		c-1.1,0-2.2-0.6-2.6-1.3c0,0-0.6,2.4-0.7,2.8c-0.3,1.1-1,2.2-1.5,2.8c1.1,0.4,2.2,0.6,3.4,0.6C16.3,21,21,16.3,21,10.5
		C21,4.7,16.3,0,10.5,0z"/>
</g>
</svg>
